Foundations for statistical inference - Sampling distributions
…
Insert your answer here

=======================================

sample_props_small <- global_monitor %>%
  rep_sample_n(size = 10, reps = 25, replace = TRUE) %>%
  count(scientist_work) %>%
  mutate(p_hat = n / sum(n)) %>%
  filter(scientist_work == "Doesn't benefit")

sample_props_small

## # A tibble: 23 × 4
## # Groups:   replicate [23]
##    replicate scientist_work      n p_hat
##        <int> <chr>           <int> <dbl>
##  1         1 Doesn't benefit     2   0.2
##  2         2 Doesn't benefit     2   0.2
##  3         3 Doesn't benefit     1   0.1
##  4         4 Doesn't benefit     3   0.3
##  5         5 Doesn't benefit     1   0.1
##  6         6 Doesn't benefit     1   0.1
##  7         8 Doesn't benefit     2   0.2
##  8         9 Doesn't benefit     2   0.2
##  9        10 Doesn't benefit     1   0.1
## 10        11 Doesn't benefit     1   0.1
## # ℹ 13 more rows
…
